<svg width="485" height="284" viewBox="0 0 485 284" fill="none" xmlns="http://www.w3.org/2000/svg">
<path d="M208.08 122.111L173.74 142.141L139.39 162.171L139.39 122.111L139.39 82.0508L173.74 102.081L208.08 122.111Z" stroke="url(#paint0_linear_79_4239)" stroke-width="1.5" stroke-miterlimit="10"/>
<path d="M36.35 102.081L70.69 122.111L36.35 142.141L2 162.171L2 122.111L2 82.0508L36.35 102.081Z" stroke="url(#paint1_linear_79_4239)" stroke-width="1.5" stroke-miterlimit="10"/>
<path d="M242.35 222.03L276.69 242.06L242.35 262.09L208 282.12L208 242.06L208 202L242.35 222.03Z" stroke="url(#paint2_linear_79_4239)" stroke-width="1.5" stroke-miterlimit="10"/>
<path d="M173.35 22.03L207.69 42.06L173.35 62.09L139 82.12L139 42.06L139 2L173.35 22.03Z" stroke="url(#paint3_linear_79_4239)" stroke-width="1.5" stroke-miterlimit="10"/>
<path d="M105.35 142.03L139.69 162.06L105.35 182.09L71 202.12L71 162.06L71 122L105.35 142.03Z" stroke="url(#paint4_linear_79_4239)" stroke-width="1.5" stroke-miterlimit="10"/>
<path d="M70.69 202.22L36.35 182.19L2 162.17L36.35 142.14L70.69 122.11L70.69 162.17L70.69 202.22Z" stroke="url(#paint5_linear_79_4239)" stroke-width="1.5" stroke-miterlimit="10"/>
<path d="M139.39 162.171L105.04 142.141L70.6904 122.111L105.04 102.081L139.39 82.0508L139.39 122.111L139.39 162.171Z" stroke="url(#paint6_linear_79_4239)" stroke-width="1.5" stroke-miterlimit="10"/>
<path d="M345.47 122.11L379.82 142.14L414.16 162.17L379.82 182.19L345.47 202.22L345.47 162.17L345.47 122.11Z" stroke="url(#paint7_linear_79_4239)" stroke-width="1.5" stroke-miterlimit="10"/>
<path d="M208.08 162.17L208.08 123.44L208.08 122.11L242.43 142.14L276.78 162.17L242.43 182.19L208.08 202.22L208.08 163.5L208.08 162.17Z" stroke="url(#paint8_linear_79_4239)" stroke-width="1.5" stroke-miterlimit="10"/>
<path d="M345.16 82.06L345.16 43.33L345.16 42L379.51 62.03L413.86 82.06L379.51 102.08L345.16 122.11L345.16 83.39L345.16 82.06Z" stroke="url(#paint9_linear_79_4239)" stroke-width="1.5" stroke-miterlimit="10"/>
<path d="M277.16 122.06L277.16 83.33L277.16 82L311.51 102.03L345.86 122.06L311.51 142.08L277.16 162.11L277.16 123.39L277.16 122.06Z" stroke="url(#paint10_linear_79_4239)" stroke-width="1.5" stroke-miterlimit="10"/>
<path d="M345.47 202.22L379.82 182.19L414.16 162.17L414.16 202.22L414.16 242.28L379.82 222.25L345.47 202.22Z" stroke="url(#paint11_linear_79_4239)" stroke-width="1.5" stroke-miterlimit="10"/>
<path d="M70 202.05L104.35 182.02L138.69 162L138.69 202.05L138.69 242.11L104.35 222.08L70 202.05Z" stroke="url(#paint12_linear_79_4239)" stroke-width="1.5" stroke-miterlimit="10"/>
<path d="M2 82.05L36.35 62.02L70.69 42L70.69 82.05L70.69 122.11L36.35 102.08L2 82.05Z" stroke="url(#paint13_linear_79_4239)" stroke-width="1.5" stroke-miterlimit="10"/>
<path d="M414.16 162.17L414.16 122.11L414.16 82.0498L448.51 102.08L482.86 122.11L448.51 142.14L414.16 162.17Z" stroke="url(#paint14_linear_79_4239)" stroke-width="1.5" stroke-miterlimit="10"/>
<path d="M414.16 242.28L414.16 202.22L414.16 162.17L448.51 182.19L482.86 202.22L448.51 222.25L414.16 242.28Z" stroke="url(#paint15_linear_79_4239)" stroke-width="1.5" stroke-miterlimit="10"/>
<defs>
<linearGradient id="paint0_linear_79_4239" x1="139.39" y1="162.171" x2="143.752" y2="78.6899" gradientUnits="userSpaceOnUse">
<stop stop-color="#F6E059"/>
<stop offset="1" stop-color="#AEF562"/>
</linearGradient>
<linearGradient id="paint1_linear_79_4239" x1="1.99998" y1="162.171" x2="6.36143" y2="78.6899" gradientUnits="userSpaceOnUse">
<stop stop-color="#F6E059"/>
<stop offset="1" stop-color="#AEF562"/>
</linearGradient>
<linearGradient id="paint2_linear_79_4239" x1="208" y1="282.12" x2="212.361" y2="198.639" gradientUnits="userSpaceOnUse">
<stop stop-color="#F6E059"/>
<stop offset="1" stop-color="#AEF562"/>
</linearGradient>
<linearGradient id="paint3_linear_79_4239" x1="139" y1="82.12" x2="143.361" y2="-1.36084" gradientUnits="userSpaceOnUse">
<stop stop-color="#F6E059"/>
<stop offset="1" stop-color="#AEF562"/>
</linearGradient>
<linearGradient id="paint4_linear_79_4239" x1="71" y1="202.12" x2="75.3614" y2="118.639" gradientUnits="userSpaceOnUse">
<stop stop-color="#F6E059"/>
<stop offset="1" stop-color="#AEF562"/>
</linearGradient>
<linearGradient id="paint5_linear_79_4239" x1="1.99998" y1="202.22" x2="6.36034" y2="118.75" gradientUnits="userSpaceOnUse">
<stop stop-color="#F6E059"/>
<stop offset="1" stop-color="#AEF562"/>
</linearGradient>
<linearGradient id="paint6_linear_79_4239" x1="70.6904" y1="162.171" x2="75.0512" y2="78.6899" gradientUnits="userSpaceOnUse">
<stop stop-color="#F6E059"/>
<stop offset="1" stop-color="#AEF562"/>
</linearGradient>
<linearGradient id="paint7_linear_79_4239" x1="345.47" y1="202.22" x2="349.831" y2="118.75" gradientUnits="userSpaceOnUse">
<stop stop-color="#F6E059"/>
<stop offset="1" stop-color="#AEF562"/>
</linearGradient>
<linearGradient id="paint8_linear_79_4239" x1="208.08" y1="202.22" x2="212.44" y2="118.75" gradientUnits="userSpaceOnUse">
<stop stop-color="#F6E059"/>
<stop offset="1" stop-color="#AEF562"/>
</linearGradient>
<linearGradient id="paint9_linear_79_4239" x1="345.16" y1="122.11" x2="349.52" y2="38.6395" gradientUnits="userSpaceOnUse">
<stop stop-color="#F6E059"/>
<stop offset="1" stop-color="#AEF562"/>
</linearGradient>
<linearGradient id="paint10_linear_79_4239" x1="277.16" y1="162.11" x2="281.52" y2="78.6395" gradientUnits="userSpaceOnUse">
<stop stop-color="#F6E059"/>
<stop offset="1" stop-color="#AEF562"/>
</linearGradient>
<linearGradient id="paint11_linear_79_4239" x1="345.47" y1="242.28" x2="349.831" y2="158.809" gradientUnits="userSpaceOnUse">
<stop stop-color="#F6E059"/>
<stop offset="1" stop-color="#AEF562"/>
</linearGradient>
<linearGradient id="paint12_linear_79_4239" x1="70" y1="242.11" x2="74.3603" y2="158.64" gradientUnits="userSpaceOnUse">
<stop stop-color="#F6E059"/>
<stop offset="1" stop-color="#AEF562"/>
</linearGradient>
<linearGradient id="paint13_linear_79_4239" x1="1.99998" y1="122.11" x2="6.36034" y2="38.6395" gradientUnits="userSpaceOnUse">
<stop stop-color="#F6E059"/>
<stop offset="1" stop-color="#AEF562"/>
</linearGradient>
<linearGradient id="paint14_linear_79_4239" x1="414.16" y1="162.17" x2="418.521" y2="78.6889" gradientUnits="userSpaceOnUse">
<stop stop-color="#F6E059"/>
<stop offset="1" stop-color="#AEF562"/>
</linearGradient>
<linearGradient id="paint15_linear_79_4239" x1="414.16" y1="242.28" x2="418.52" y2="158.809" gradientUnits="userSpaceOnUse">
<stop stop-color="#F6E059"/>
<stop offset="1" stop-color="#AEF562"/>
</linearGradient>
</defs>
</svg>
