<svg width="123" height="39" viewBox="0 0 123 39" fill="none" xmlns="http://www.w3.org/2000/svg">
<path d="M47.2266 5.625H49.4609L52 13.5391L54.5391 5.625H56.7734L52.9062 17H51.0938L47.2266 5.625ZM45.8672 5.625H48.1797L48.6094 14.3438V17H45.8672V5.625ZM55.8203 5.625H58.1406V17H55.3906V14.3438L55.8203 5.625ZM62.6172 5.625V17H59.8828V5.625H62.6172ZM69.1797 5.625L65.0938 12.5H62.1406L61.8125 10.0234H63.6797L65.8672 5.625H69.1797ZM66.3359 17L63.6719 12.0234L65.6641 10.1875L69.5703 17H66.3359ZM72.9766 5.625V17H70.2422V5.625H72.9766ZM79.5391 5.625L75.4531 12.5H72.5L72.1719 10.0234H74.0391L76.2266 5.625H79.5391ZM76.6953 17L74.0312 12.0234L76.0234 10.1875L79.9297 17H76.6953ZM52.3359 32.1484H55.0703C55.0339 32.9401 54.8203 33.638 54.4297 34.2422C54.0391 34.8464 53.4974 35.3177 52.8047 35.6562C52.1172 35.9896 51.3047 36.1562 50.3672 36.1562C49.6068 36.1562 48.9271 36.0286 48.3281 35.7734C47.7344 35.5182 47.2292 35.151 46.8125 34.6719C46.401 34.1927 46.0859 33.612 45.8672 32.9297C45.6536 32.2474 45.5469 31.4792 45.5469 30.625V30.0078C45.5469 29.1536 45.6589 28.3854 45.8828 27.7031C46.112 27.0156 46.4349 26.4323 46.8516 25.9531C47.2734 25.4688 47.7786 25.099 48.3672 24.8438C48.9557 24.5885 49.6094 24.4609 50.3281 24.4609C51.3177 24.4609 52.1536 24.638 52.8359 24.9922C53.5182 25.3464 54.0469 25.8333 54.4219 26.4531C54.7969 27.0677 55.0182 27.7682 55.0859 28.5547H52.3516C52.3411 28.1276 52.2682 27.7708 52.1328 27.4844C51.9974 27.1927 51.7839 26.974 51.4922 26.8281C51.2005 26.6823 50.8125 26.6094 50.3281 26.6094C49.9896 26.6094 49.6953 26.6719 49.4453 26.7969C49.1953 26.9219 48.987 27.1198 48.8203 27.3906C48.6536 27.6615 48.5286 28.013 48.4453 28.4453C48.3672 28.8724 48.3281 29.388 48.3281 29.9922V30.625C48.3281 31.2292 48.3646 31.7448 48.4375 32.1719C48.5104 32.599 48.6276 32.9479 48.7891 33.2188C48.9505 33.4896 49.1589 33.6901 49.4141 33.8203C49.6745 33.9453 49.9922 34.0078 50.3672 34.0078C50.7839 34.0078 51.1354 33.9427 51.4219 33.8125C51.7083 33.6771 51.9297 33.474 52.0859 33.2031C52.2422 32.9271 52.3255 32.5755 52.3359 32.1484ZM65.9922 30.0859V30.5469C65.9922 31.4167 65.8698 32.1979 65.625 32.8906C65.3854 33.5781 65.0443 34.1667 64.6016 34.6562C64.1589 35.1406 63.6354 35.513 63.0312 35.7734C62.4271 36.0286 61.7604 36.1562 61.0312 36.1562C60.2969 36.1562 59.625 36.0286 59.0156 35.7734C58.4115 35.513 57.8854 35.1406 57.4375 34.6562C56.9948 34.1667 56.651 33.5781 56.4062 32.8906C56.1667 32.1979 56.0469 31.4167 56.0469 30.5469V30.0859C56.0469 29.2161 56.1667 28.4349 56.4062 27.7422C56.651 27.0495 56.9922 26.4609 57.4297 25.9766C57.8724 25.487 58.3958 25.1146 59 24.8594C59.6094 24.599 60.2812 24.4688 61.0156 24.4688C61.7448 24.4688 62.4115 24.599 63.0156 24.8594C63.625 25.1146 64.151 25.487 64.5938 25.9766C65.0365 26.4609 65.3802 27.0495 65.625 27.7422C65.8698 28.4349 65.9922 29.2161 65.9922 30.0859ZM63.2109 30.5469V30.0703C63.2109 29.5078 63.1615 29.013 63.0625 28.5859C62.9688 28.1536 62.8281 27.7917 62.6406 27.5C62.4531 27.2083 62.2214 26.9896 61.9453 26.8438C61.6745 26.6927 61.3646 26.6172 61.0156 26.6172C60.651 26.6172 60.3333 26.6927 60.0625 26.8438C59.7917 26.9896 59.5651 27.2083 59.3828 27.5C59.2005 27.7917 59.0625 28.1536 58.9688 28.5859C58.8802 29.013 58.8359 29.5078 58.8359 30.0703V30.5469C58.8359 31.1042 58.8802 31.599 58.9688 32.0312C59.0625 32.4583 59.2005 32.8203 59.3828 33.1172C59.5703 33.4141 59.7995 33.638 60.0703 33.7891C60.3464 33.9401 60.6667 34.0156 61.0312 34.0156C61.3802 34.0156 61.6901 33.9401 61.9609 33.7891C62.2318 33.638 62.4583 33.4141 62.6406 33.1172C62.8281 32.8203 62.9688 32.4583 63.0625 32.0312C63.1615 31.599 63.2109 31.1042 63.2109 30.5469ZM72.25 24.625V36H69.5078V24.625H72.25ZM75.6719 24.625V26.7422H66.1641V24.625H75.6719ZM86.2422 30.0859V30.5469C86.2422 31.4167 86.1198 32.1979 85.875 32.8906C85.6354 33.5781 85.2943 34.1667 84.8516 34.6562C84.4089 35.1406 83.8854 35.513 83.2812 35.7734C82.6771 36.0286 82.0104 36.1562 81.2812 36.1562C80.5469 36.1562 79.875 36.0286 79.2656 35.7734C78.6615 35.513 78.1354 35.1406 77.6875 34.6562C77.2448 34.1667 76.901 33.5781 76.6562 32.8906C76.4167 32.1979 76.2969 31.4167 76.2969 30.5469V30.0859C76.2969 29.2161 76.4167 28.4349 76.6562 27.7422C76.901 27.0495 77.2422 26.4609 77.6797 25.9766C78.1224 25.487 78.6458 25.1146 79.25 24.8594C79.8594 24.599 80.5312 24.4688 81.2656 24.4688C81.9948 24.4688 82.6615 24.599 83.2656 24.8594C83.875 25.1146 84.401 25.487 84.8438 25.9766C85.2865 26.4609 85.6302 27.0495 85.875 27.7422C86.1198 28.4349 86.2422 29.2161 86.2422 30.0859ZM83.4609 30.5469V30.0703C83.4609 29.5078 83.4115 29.013 83.3125 28.5859C83.2188 28.1536 83.0781 27.7917 82.8906 27.5C82.7031 27.2083 82.4714 26.9896 82.1953 26.8438C81.9245 26.6927 81.6146 26.6172 81.2656 26.6172C80.901 26.6172 80.5833 26.6927 80.3125 26.8438C80.0417 26.9896 79.8151 27.2083 79.6328 27.5C79.4505 27.7917 79.3125 28.1536 79.2188 28.5859C79.1302 29.013 79.0859 29.5078 79.0859 30.0703V30.5469C79.0859 31.1042 79.1302 31.599 79.2188 32.0312C79.3125 32.4583 79.4505 32.8203 79.6328 33.1172C79.8203 33.4141 80.0495 33.638 80.3203 33.7891C80.5964 33.9401 80.9167 34.0156 81.2812 34.0156C81.6302 34.0156 81.9401 33.9401 82.2109 33.7891C82.4818 33.638 82.7083 33.4141 82.8906 33.1172C83.0781 32.8203 83.2188 32.4583 83.3125 32.0312C83.4115 31.599 83.4609 31.1042 83.4609 30.5469ZM92.3047 31.1641H89.375L89.3594 29.3672H91.7344C92.1615 29.3672 92.5026 29.3203 92.7578 29.2266C93.013 29.1276 93.1979 28.9844 93.3125 28.7969C93.4323 28.6094 93.4922 28.375 93.4922 28.0938C93.4922 27.7708 93.4323 27.5104 93.3125 27.3125C93.1927 27.1146 93.0026 26.9714 92.7422 26.8828C92.487 26.7891 92.1562 26.7422 91.75 26.7422H90.4062V36H87.6641V24.625H91.75C92.4531 24.625 93.0807 24.6901 93.6328 24.8203C94.1849 24.9453 94.6536 25.138 95.0391 25.3984C95.4297 25.6589 95.7266 25.987 95.9297 26.3828C96.1328 26.7734 96.2344 27.2344 96.2344 27.7656C96.2344 28.2292 96.1354 28.6641 95.9375 29.0703C95.7396 29.4766 95.4089 29.8073 94.9453 30.0625C94.487 30.3125 93.8594 30.4427 93.0625 30.4531L92.3047 31.1641ZM92.1953 36H88.7109L89.6484 33.8906H92.1953C92.5703 33.8906 92.8698 33.8333 93.0938 33.7188C93.3229 33.599 93.487 33.4427 93.5859 33.25C93.6901 33.0521 93.7422 32.8333 93.7422 32.5938C93.7422 32.3021 93.6927 32.0495 93.5938 31.8359C93.5 31.6224 93.349 31.4583 93.1406 31.3438C92.9323 31.224 92.6536 31.1641 92.3047 31.1641H90L90.0156 29.3672H92.7734L93.4141 30.0859C94.1745 30.0547 94.776 30.1615 95.2188 30.4062C95.6667 30.651 95.987 30.974 96.1797 31.375C96.3724 31.776 96.4688 32.1953 96.4688 32.6328C96.4688 33.3776 96.3073 34 95.9844 34.5C95.6667 35 95.1901 35.375 94.5547 35.625C93.9193 35.875 93.1328 36 92.1953 36ZM99.6953 28.5391H102.141C103.062 28.5391 103.865 28.6927 104.547 29C105.229 29.3073 105.755 29.737 106.125 30.2891C106.5 30.8411 106.688 31.487 106.688 32.2266C106.688 32.7839 106.581 33.2943 106.367 33.7578C106.154 34.2161 105.846 34.6146 105.445 34.9531C105.049 35.2865 104.573 35.5443 104.016 35.7266C103.458 35.9089 102.833 36 102.141 36H97.9844V24.625H100.734V33.8906H102.141C102.531 33.8906 102.859 33.8151 103.125 33.6641C103.396 33.513 103.602 33.3125 103.742 33.0625C103.883 32.8073 103.953 32.5234 103.953 32.2109C103.953 31.9089 103.883 31.6406 103.742 31.4062C103.602 31.1719 103.396 30.987 103.125 30.8516C102.859 30.7161 102.531 30.6484 102.141 30.6484H99.6953V28.5391ZM110.25 24.625V36H107.516V24.625H110.25ZM114.531 31.8047L118.617 24.625H121.359V36H118.617V28.8281L114.531 36H111.789V24.625H114.531V31.8047ZM117.68 21.5625H119.484C119.484 22.0312 119.365 22.4479 119.125 22.8125C118.891 23.1719 118.557 23.4531 118.125 23.6562C117.693 23.8594 117.182 23.9609 116.594 23.9609C115.703 23.9609 114.997 23.7396 114.477 23.2969C113.956 22.849 113.695 22.2708 113.695 21.5625H115.492C115.492 21.8177 115.576 22.0469 115.742 22.25C115.909 22.4531 116.193 22.5547 116.594 22.5547C116.995 22.5547 117.276 22.4531 117.438 22.25C117.599 22.0469 117.68 21.8177 117.68 21.5625Z" fill="white"/>
<path d="M20.6579 28.9249C18.1121 28.9249 15.6079 28.251 13.4087 26.9753L16.2097 22.1471C17.5575 22.9292 19.0938 23.3424 20.6579 23.3424C25.5555 23.3424 29.5379 19.3572 29.5379 14.4625C29.5379 9.56491 25.5527 5.58253 20.6579 5.58253C19.0966 5.58253 17.5575 5.99575 16.2097 6.7778L13.4115 1.94959C15.6079 0.673898 18.1149 0 20.6579 0C28.631 0 35.1204 6.48661 35.1204 14.4625C35.1204 22.4355 28.6338 28.9249 20.6579 28.9249Z" fill="white"/>
<path d="M20.5375 25.938C21.2844 22.775 19.3257 19.6054 16.1627 18.8586C12.9997 18.1117 9.83016 20.0704 9.08329 23.2333C8.33642 26.3963 10.2951 29.5659 13.4581 30.3128C16.6211 31.0597 19.7906 29.101 20.5375 25.938Z" fill="white"/>
<path d="M14.4375 38.9998C6.47829 38.9998 0 32.5215 0 24.5623C0 16.6004 6.47829 10.1221 14.4375 10.1221C18.761 10.1221 22.8238 12.0356 25.5776 15.3746L21.2735 18.9271C19.5819 16.8777 17.0915 15.7018 14.4375 15.7018C9.55382 15.7018 5.57976 19.6759 5.57976 24.5596C5.57976 29.4432 9.55382 33.4173 14.4375 33.4173C16.9085 33.4173 19.2019 32.4245 20.8936 30.6246L24.9619 34.4462C22.2442 37.3414 18.4088 38.9998 14.4375 38.9998Z" fill="white"/>
</svg>
